{
	"blabber.im": {
		"lastCheck": {
			"content": "2022-03-19",
			"comment": ""
		},
		"website": {
			"content": {
				"de": "https://blabber.im/index.html",
				"en": "https://blabber.im"
			},
			"comment": ""
		},
		"since": {
			"content": "3.1.0.1",
			"source": "https://codeberg.org/kriztan/blabber.im/releases/tag/3.1.0.1",
			"comment": "Release notes do not mention XMPP Providers support but https://codeberg.org/kriztan/blabber.im/commit/b00ec1e5f6c4f745cacc3b48dc392136690d7f26 implements it"
		}
	},
	"Kaidan": {
		"lastCheck": {
			"content": "2022-03-19",
			"comment": ""
		},
		"website": {
			"content": {
				"en": "https://www.kaidan.im"
			},
			"comment": ""
		},
		"since": {
			"content": "0.9.0",
			"source": "https://invent.kde.org/network/kaidan/-/merge_requests/788",
			"comment": ""
		}
	},
	"UWPX": {
		"lastCheck": {
			"content": "2022-03-19",
			"comment": ""
		},
		"website": {
			"content": {
				"en": "https://uwpx.org"
			},
			"comment": ""
		},
		"since": {
			"content": "0.33.0.0",
			"source": "https://github.com/UWPX/UWPX-Client/releases/tag/v.0.33.0.0",
			"comment": ""
		}
	}
}
